<?xml version="1.0" encoding="UTF-8"?>
<svg width="18px" height="20px" viewBox="0 0 18 20" version="1.1" xmlns="http://www.w3.org/2000/svg" xmlns:xlink="http://www.w3.org/1999/xlink">
    <!-- Generator: Sketch 47 (45396) - http://www.bohemiancoding.com/sketch -->
    <title>✓</title>
    <desc>Created with Sketch.</desc>
    <defs></defs>
    <g id="Page-1" stroke="none" stroke-width="1" fill="none" fill-rule="evenodd">
        <path d="M7.0234375,19.4697266 C6.23632419,18.0478445 5.63118701,17.0026075 5.20800781,16.3339844 L4.53515625,15.2802734 L4.02734375,14.5058594 C2.91861425,12.7792882 1.76335236,11.3531957 0.561523438,10.2275391 C1.24707374,9.66047894 1.88606475,9.37695312 2.47851562,9.37695312 C3.20638385,9.37695312 3.85383831,9.64355202 4.42089844,10.1767578 C4.98795856,10.7099636 5.70312068,11.7255784 6.56640625,13.2236328 C7.54818199,10.0328617 8.7965419,7.00717576 10.3115234,4.14648438 C11.1494183,2.58918492 11.8963183,1.54183211 12.5522461,1.00439453 C13.2081739,0.466956948 14.0777941,0.198242188 15.1611328,0.198242188 C15.7366565,0.198242188 16.4475869,0.287108486 17.2939453,0.46484375 C15.1188042,2.21680563 13.3795638,4.29881606 12.0761719,6.7109375 C10.7727799,9.12305894 9.08855199,13.3759461 7.0234375,19.4697266 Z" id="✓" fill="#B0976C"></path>
    </g>
</svg>