<?xml version="1.0" encoding="UTF-8"?>
<svg width="239px" height="52px" viewBox="0 0 239 52" version="1.1" xmlns="http://www.w3.org/2000/svg" xmlns:xlink="http://www.w3.org/1999/xlink">
    <!-- Generator: Sketch 47 (45396) - http://www.bohemiancoding.com/sketch -->
    <title>01_logo</title>
    <desc>Created with Sketch.</desc>
    <defs>
        <linearGradient x1="-21.8478671%" y1="31.5615986%" x2="111.329126%" y2="107.351053%" id="linearGradient-1">
            <stop stop-color="#B1934F" offset="0%"></stop>
            <stop stop-color="#D1B576" offset="28%"></stop>
            <stop stop-color="#BFA363" offset="64%"></stop>
            <stop stop-color="#AC8D48" offset="99%"></stop>
            <stop stop-color="#9D7A32" offset="100%"></stop>
        </linearGradient>
    </defs>
    <g id="Symbols" stroke="none" stroke-width="1" fill="none" fill-rule="evenodd">
        <g id="Header-/-[-Menu-]" transform="translate(-80.000000, -26.000000)">
            <g id="[-Menu-]">
                <g id="[-Logo-]" transform="translate(80.000000, 20.000000)">
                    <g id="01_logo" transform="translate(0.000000, 6.000000)">
                        <path d="M201.305663,39.820336 L200.592532,39.820336 L200.592532,38.084117 L195.879938,38.084117 L195.879938,31.8523714 L196.716923,31.8523714 L196.716923,37.3400232 L199.941329,37.3400232 L199.941329,31.8523714 L200.747673,31.8523714 L200.747673,37.3400232 L201.305663,37.3400232 L201.305663,39.820336 Z M134.987774,39.820336 L134.24368,39.820336 L134.24368,38.084117 L129.56205,38.084117 L129.56205,31.8523714 L130.368393,31.8523714 L130.368393,37.3400232 L133.5928,37.3400232 L133.5928,31.8523714 L134.429784,31.8523714 L134.429784,37.3400232 L134.987774,37.3400232 L134.987774,39.820336 Z M112.106969,39.5413411 L111.393839,39.5413411 L111.393839,37.3400232 L111.858938,37.3400232 C112.355,36.5959293 112.603032,35.0458145 112.603032,32.7516057 L112.603032,31.8523714 L116.385428,31.8523714 L116.385428,37.3400232 L116.943418,37.3400232 L116.943418,39.5413411 L116.199324,39.5413411 L116.199324,38.084117 L112.106969,38.084117 L112.106969,39.5413411 Z M160.907204,35.8827991 L161.744512,36.0998668 C161.558408,36.7820334 161.279413,37.278096 160.814314,37.6499817 C160.380178,37.9912263 159.822189,38.1773303 159.201949,38.1773303 C158.520105,38.1773303 157.993079,38.0531534 157.558943,37.7741586 C157.155772,37.4951637 156.81485,37.1229555 156.597782,36.5959293 C156.411678,36.0689032 156.287823,35.5109134 156.287823,34.9216375 C156.287823,34.270757 156.411678,33.7124447 156.659709,33.2163822 C156.90774,32.7203196 157.248985,32.3484339 157.713761,32.1313662 C158.147897,31.8523714 158.643959,31.7281945 159.201949,31.7281945 C159.822189,31.7281945 160.349215,31.883335 160.752387,32.224257 C161.186199,32.534538 161.465517,32.9683509 161.651298,33.5576268 L160.845277,33.7437309 C160.690459,33.2786319 160.504355,32.9683509 160.22536,32.7516057 C159.946043,32.534538 159.605121,32.4413247 159.201949,32.4413247 C158.706209,32.4413247 158.303037,32.5655016 157.993079,32.7825693 C157.682798,32.999637 157.46573,33.3095955 157.341876,33.7124447 C157.186735,34.0846529 157.124808,34.4878247 157.124808,34.8906739 C157.124808,35.4486637 157.217699,35.9137627 157.372839,36.2859709 C157.52798,36.6888201 157.744725,36.9991011 158.08597,37.1848827 C158.395928,37.3709868 158.737173,37.4642001 159.109058,37.4642001 C159.574157,37.4642001 159.977329,37.3400232 160.287288,37.0919919 C160.597246,36.812997 160.814314,36.4098252 160.907204,35.8827991 Z M121.438944,38.084117 L120.632923,38.084117 L120.632923,31.8523714 L121.377017,31.8523714 L121.377017,36.7820334 L124.663351,31.8523714 L125.469695,31.8523714 L125.469695,38.084117 L124.725601,38.084117 L124.725601,33.154455 L121.438944,38.084117 Z M231.224557,38.084117 L230.387572,38.084117 L230.387572,31.8523714 L232.712745,31.8523714 C233.14688,31.8523714 233.456838,31.8523714 233.673906,31.9142986 C233.983865,31.9452621 234.232218,32.0384755 234.448964,32.1932934 C234.635068,32.3484339 234.821172,32.534538 234.945026,32.7825693 C235.069203,33.0615642 235.13113,33.3405591 235.13113,33.6505175 C235.13113,34.1775437 234.945026,34.6116791 234.604104,34.9838873 C234.294146,35.3557729 233.673906,35.541877 232.805958,35.541877 L231.224557,35.541877 L231.224557,38.084117 Z M226.821921,32.5655016 L224.806707,32.5655016 L224.806707,38.084117 L223.969723,38.084117 L223.969723,32.5655016 L221.954509,32.5655016 L221.954509,31.8523714 L226.821921,31.8523714 L226.821921,32.5655016 Z M108.200396,38.084117 L103.580692,38.084117 L103.580692,31.8523714 L108.045255,31.8523714 L108.045255,32.5655016 L104.417677,32.5655016 L104.417677,34.4878247 L107.828187,34.4878247 L107.828187,35.2319185 L104.417677,35.2319185 L104.417677,37.3400232 L108.200396,37.3400232 L108.200396,38.084117 Z M214.296503,38.084117 L213.490481,38.084117 L213.490481,31.8523714 L214.296503,31.8523714 L214.296503,34.425575 L217.489623,34.425575 L217.489623,31.8523714 L218.32693,31.8523714 L218.32693,38.084117 L217.489623,38.084117 L217.489623,35.1387052 L214.296503,35.1387052 L214.296503,38.084117 Z M94.4344982,38.084117 L93.6594407,38.084117 L93.6594407,31.8523714 L94.8686336,31.8523714 L96.3568213,36.2550073 C96.4806756,36.6578565 96.573889,36.9681375 96.6358161,37.1848827 C96.6977433,36.9681375 96.8219202,36.6268929 96.9767382,36.1927575 L98.4649259,31.8523714 L99.5502643,31.8523714 L99.5502643,38.084117 L98.7752069,38.084117 L98.7752069,32.8754601 L96.9457746,38.084117 L96.2326444,38.084117 L94.4344982,32.7825693 L94.4344982,38.084117 Z M148.41275,38.084117 L147.606406,38.084117 L147.606406,31.8523714 L148.41275,31.8523714 L148.41275,34.425575 L151.606193,34.425575 L151.606193,31.8523714 L152.443177,31.8523714 L152.443177,38.084117 L151.606193,38.084117 L151.606193,35.1387052 L148.41275,35.1387052 L148.41275,38.084117 Z M166.332929,38.084117 L165.495944,38.084117 L165.495944,31.8523714 L166.332929,31.8523714 L166.332929,34.5807155 C166.674174,34.5807155 166.953169,34.4878247 167.108309,34.3636478 C167.263127,34.2085073 167.449231,33.8675852 167.697262,33.3095955 C167.85208,32.8754601 168.007221,32.5964652 168.100112,32.4413247 C168.224289,32.2552206 168.379429,32.1313662 168.596174,32.0075119 C168.782278,31.883335 169.03031,31.8214078 169.278341,31.8214078 C169.588622,31.8214078 169.74344,31.8214078 169.774403,31.8523714 L169.774403,32.5655016 C169.74344,32.5655016 169.681513,32.5655016 169.619586,32.534538 L169.433481,32.534538 C169.18545,32.534538 168.968382,32.5964652 168.844528,32.7516057 C168.720351,32.8754601 168.565211,33.1234914 168.410393,33.5576268 C168.193325,34.0846529 168.038184,34.425575 167.883367,34.5497519 C167.728226,34.7045699 167.573086,34.7977832 167.387304,34.8906739 C167.75919,34.9838873 168.162361,35.3867365 168.565211,36.006976 L169.836331,38.084117 L168.813242,38.084117 L167.75919,36.4098252 C167.480195,35.9137627 167.263127,35.6038042 167.046059,35.4177001 C166.859955,35.2628821 166.611924,35.1696688 166.332929,35.1696688 L166.332929,38.084117 Z M182.982311,38.084117 L182.175968,38.084117 L182.175968,31.8523714 L182.920384,31.8523714 L182.920384,36.7820334 L186.206718,31.8523714 L187.012739,31.8523714 L187.012739,38.084117 L186.268645,38.084117 L186.268645,33.154455 L182.982311,38.084117 Z M209.614872,38.084117 L204.995168,38.084117 L204.995168,31.8523714 L209.459731,31.8523714 L209.459731,32.5655016 L205.801189,32.5655016 L205.801189,34.4878247 L209.2117,34.4878247 L209.2117,35.2319185 L205.801189,35.2319185 L205.801189,37.3400232 L209.614872,37.3400232 L209.614872,38.084117 Z M139.483623,38.084117 L138.646316,38.084117 L138.646316,31.8523714 L139.39041,31.8523714 L139.39041,36.7820334 L142.70803,31.8523714 L143.514051,31.8523714 L143.514051,38.084117 L142.769957,38.084117 L142.769957,33.154455 L139.483623,38.084117 Z M174.053185,38.084117 L173.246841,38.084117 L173.246841,31.8523714 L173.990935,31.8523714 L173.990935,36.7820334 L177.277592,31.8523714 L178.083613,31.8523714 L178.083613,38.084117 L177.339519,38.084117 L177.339519,33.154455 L174.053185,38.084117 Z M115.579407,32.5655016 L113.409053,32.5655016 L113.409053,32.8754601 C113.409053,33.4334498 113.347125,34.1465801 113.253912,35.076778 C113.161021,36.006976 112.974917,36.7510698 112.695922,37.3400232 L115.579407,37.3400232 L115.579407,32.5655016 Z M232.805958,32.5655016 L231.224557,32.5655016 L231.224557,34.7977832 L232.805958,34.7977832 C233.332984,34.7977832 233.70487,34.7045699 233.952901,34.5187883 C234.169969,34.3017206 234.263182,34.0227257 234.263182,33.6505175 C234.263182,33.4024863 234.200932,33.1854186 234.077078,32.999637 C233.952901,32.8135329 233.767119,32.689356 233.550052,32.6274288 C233.425875,32.5964652 233.177844,32.5655016 232.805958,32.5655016 Z M185.245556,30.3641837 L185.772582,30.3641837 C185.710655,30.7051057 185.586478,30.9841006 185.369733,31.1702047 C185.183629,31.3563088 184.873671,31.4491996 184.532426,31.4491996 C184.160218,31.4491996 183.881223,31.3563088 183.664478,31.1702047 C183.44741,30.9841006 183.323233,30.7051057 183.261306,30.3641837 L183.788332,30.3641837 C183.819296,30.5502878 183.912187,30.6741421 184.036363,30.7670329 C184.129254,30.8912098 184.315358,30.9221734 184.501462,30.9221734 C184.71853,30.9221734 184.904634,30.8912098 184.997525,30.7983191 C185.121702,30.7051057 185.214593,30.5502878 185.245556,30.3641837 Z" id="Shape" fill="#7D6F5F"></path>
                        <path d="M31.8378973,43.3858347 C43.0589744,46.3312465 54.0962052,49.2147311 65.4753257,42.4556368 C62.4370231,47.5404393 52.1126,55.6012947 33.4796128,48.2535696 C22.287564,43.8199701 11.9308872,41.7425065 0.645302523,47.6952573 C3.59329462,44.2228193 16.8624844,39.4792614 31.8378973,43.3858347 Z M35.0922999,37.2160162 C46.2843487,40.161428 57.3538332,43.0136265 68.7007,36.2858183 C65.6946511,41.3706208 55.3379743,49.4005127 36.7049871,42.0527875 C25.5419666,37.6501516 15.1885152,35.572688 3.90293055,41.5254388 C6.81544353,38.0530009 20.1168871,33.3094429 35.0922999,37.2160162 Z M38.3176742,31.0461978 C49.5387513,33.960646 60.5759822,36.843808 71.9551026,30.1159998 C68.9168001,35.2008024 58.592377,43.2306942 39.9593897,35.882969 C28.7963693,31.4803331 18.4106641,29.371906 7.12507947,35.3556203 C10.0730716,31.8831824 23.3422614,27.1396244 38.3176742,31.0461978 Z M183.324051,20.504707 L185.430221,20.504707 L185.430221,28.7829526 L181.214657,28.7829526 L181.214657,23.9461813 L170.42578,23.9461813 L170.42578,28.7829526 L166.20699,28.7829526 L166.20699,20.504707 L168.161567,20.504707 C169.122728,18.6133475 170.238708,14.2110341 170.238708,10.3973516 L170.238708,7.54515308 L183.324051,7.54515308 L183.324051,20.504707 Z M25.8516026,25.6514367 L17.0463308,25.6514367 L28.3931975,0.289996161 L37.385541,0.289996161 L39.1852999,13.1256957 C41.107623,8.84723668 43.029946,4.56877769 44.9522691,0.289996161 L53.4769333,0.289996161 L53.4769333,6.39788745 L47.3390461,6.39788745 L47.3390461,14.5829198 L42.3784204,25.6514367 L33.3570485,25.6514367 L31.4960076,13.0637685 C29.6027129,17.2493367 27.7126435,21.4349049 25.8516026,25.6514367 Z M60.1115283,25.6514367 L51.3385102,25.6514367 L51.3385102,14.5829198 L53.4769333,14.5829198 L53.4769333,20.7217747 L61.6306795,20.7217747 L61.6306795,14.5829198 L67.7717922,14.5829198 L67.7717922,6.39788745 L61.6306795,6.39788745 L61.6306795,0.289996161 C64.1722745,0.321282292 66.3752051,0.600277168 68.2652745,1.09633973 C70.3746692,1.62336589 72.1099206,2.46035052 73.5065077,3.51440284 C74.870841,4.59974128 75.8932846,5.90182488 76.577064,7.4832259 C77.257618,9.03334078 77.5995076,10.8934141 77.5995076,13.0018413 C77.5995076,15.4202269 77.1640821,17.5592952 76.2642027,19.3887275 C75.396577,21.2488008 73.6290719,22.7369885 71.0552232,23.8842541 C68.4523462,25.0624834 64.7947717,25.6514367 60.1115283,25.6514367 Z M164.687839,23.9461813 C164.100821,22.551207 164.129849,21.0007695 164.129849,19.5125818 L164.129849,12.4125654 C164.129849,7.82414796 160.285203,7.08005411 156.998546,7.08005411 C152.257246,7.08005411 149.651144,8.94012746 149.40279,12.5986695 L153.62158,12.5986695 C153.931216,10.7385962 154.798841,10.0873931 156.843729,10.0873931 C158.859587,10.0873931 159.791721,10.8005234 159.791721,12.288711 C159.791721,13.6217582 158.737023,13.8697895 155.821285,14.2419977 C152.566882,14.6761331 148.660954,15.1721957 148.660954,19.4816182 C148.660954,22.551207 150.892913,24.4422439 154.521459,24.4422439 C156.47281,24.4422439 158.395134,23.7600772 159.791721,22.3651029 C159.853003,23.0782331 159.914285,23.357228 160.130385,23.9461813 L164.687839,23.9461813 Z M191.53908,16.877451 C191.600362,19.7296495 192.964695,21.2488008 195.383726,21.2488008 C197.025441,21.2488008 198.047885,20.504707 198.731664,18.8617013 L203.040764,18.8617013 C202.018321,22.42703 199.073554,24.4422439 195.351472,24.4422439 C190.297311,24.4422439 186.949372,21.0007695 186.949372,15.8540398 C186.949372,10.7695598 190.4231,7.08005411 195.196654,7.08005411 C200.15728,7.08005411 203.289118,10.7076326 203.289118,16.4433157 L203.289118,16.877451 L191.53908,16.877451 Z M210.420421,23.9461813 L205.924249,23.9461813 L205.924249,7.54515308 L210.420421,7.54515308 L210.420421,13.4979039 L216.74538,13.4979039 L216.74538,7.54515308 L221.209298,7.54515308 L221.209298,23.9461813 L216.74538,23.9461813 L216.74538,17.032269 L210.420421,17.032269 L210.420421,23.9461813 Z M238.571488,11.017591 L233.178662,11.017591 L233.178662,23.9461813 L228.711518,23.9461813 L228.711518,11.017591 L223.318693,11.017591 L223.318693,7.54515308 L238.571488,7.54515308 L238.571488,11.017591 Z M98.0935359,23.9461813 L93.5973641,23.9461813 L93.5973641,7.54515308 L98.0935359,7.54515308 L98.0935359,13.4979039 L104.415269,13.4979039 L104.415269,7.54515308 L108.882413,7.54515308 L108.882413,23.9461813 L104.415269,23.9461813 L104.415269,17.032269 L98.0935359,17.032269 L98.0935359,23.9461813 Z M117.561895,23.9461813 L112.446451,23.9461813 L112.446451,7.54515308 L116.755551,7.54515308 L116.755551,18.6446336 L122.616057,7.54515308 L127.7315,7.54515308 L127.7315,23.9461813 L123.390146,23.9461813 L123.390146,12.8467008 L117.561895,23.9461813 Z M135.762682,23.9461813 L131.360046,23.9461813 L131.360046,7.54515308 L135.762682,7.54515308 L135.762682,14.02493 L141.778005,7.54515308 L147.077295,7.54515308 L140.723308,13.9010757 L147.948146,23.9461813 L142.490813,23.9461813 L137.778541,16.877451 L135.762682,18.9236285 L135.762682,23.9461813 Z M159.791721,15.9782167 L159.791721,17.8073265 C159.791721,20.1637849 158.117751,21.4658685 155.760003,21.4658685 C154.208598,21.4658685 153.27969,20.6598475 153.27969,19.2645506 C153.27969,17.2803003 155.047195,17.0941962 156.595375,16.8152013 C157.743608,16.6294198 158.737023,16.56717 159.791721,15.9782167 Z M178.82788,10.8934141 L174.425244,10.8934141 L174.425244,11.2965859 C174.425244,14.7690239 173.338293,18.768488 172.564203,20.504707 L178.82788,20.504707 L178.82788,10.8934141 Z M198.731664,14.02493 C198.515564,12.0406798 197.460867,10.3354244 195.196654,10.3354244 C193.180795,10.3354244 191.787434,11.7307213 191.53908,14.02493 L198.731664,14.02493 Z" id="Shape" fill="url(#linearGradient-1)"></path>
                    </g>
                </g>
            </g>
        </g>
    </g>
</svg>